CM Subtypes
…
fgseares.tidy <- fgseares %>%
  as_tibble() %>%  
  arrange(desc(NES))

fgseares.tidy <- fgseares.tidy %>%
  dplyr::select(-ES, -nMoreExtreme) 

fgseares.tidy.top.up   <- head(fgseares.tidy, 15)
fgseares.tidy.top.down <- tail(fgseares.tidy, 15)
fgseares.tidy.top.both <- rbind(fgseares.tidy.top.up, fgseares.tidy.top.down)
fgseares.tidy.top.both

# A tibble: 30 × 6
   pathway                                   pval   padj   NES  size leadingEdge
   <chr>                                    <dbl>  <dbl> <dbl> <int> <list>     
 1 HALLMARK_ALLOGRAFT_REJECTION           6.25e-3 0.0781  1.61    17 <chr [10]> 
 2 HALLMARK_OXIDATIVE_PHOSPHORYLATION     9.99e-4 0.0500  1.59   128 <chr [80]> 
 3 HALLMARK_REACTIVE_OXYGEN_SPECIES_PATH… 1.43e-2 0.117   1.51    22 <chr [11]> 
 4 HALLMARK_COMPLEMENT                    1.64e-2 0.117   1.50    21 <chr [13]> 
 5 HALLMARK_P53_PATHWAY                   1.11e-2 0.111   1.49    30 <chr [18]> 
 6 HALLMARK_ADIPOGENESIS                  5.99e-3 0.0781  1.46    52 <chr [25]> 
 7 HALLMARK_MYOGENESIS                    2.40e-2 0.150   1.42    43 <chr [25]> 
 8 HALLMARK_MYC_TARGETS_V1                3.00e-3 0.0749  1.40   124 <chr [78]> 
 9 HALLMARK_ANGIOGENESIS                  7.76e-2 0.381   1.38     6 <chr [3]>  
10 HALLMARK_INTERFERON_ALPHA_RESPONSE     8.39e-2 0.381   1.38     9 <chr [6]>  
# ℹ 20 more rows
…
