GSEA Macrophages
…
New names:
Rows: 5546 Columns: 7
── Column specification
──────────────────────────────────────────────────────── Delimiter: "," chr
(1): gene dbl (6): ...1, p_val, avg_log2FC, pct.1, pct.2, p_val_adj
ℹ Use `spec()` to retrieve the full column specification for this data. ℹ
Specify the column types or set `show_col_types = FALSE` to quiet this message.
• `` -> `...1`

Macrophages_all

# A tibble: 5,546 × 7
    ...1 gene        p_val avg_log2FC pct.1 pct.2 p_val_adj
   <dbl> <chr>       <dbl>      <dbl> <dbl> <dbl>     <dbl>
 1     1 SELENOP  1.23e-73     -2.40  0.382 0.729  4.76e-69
 2     2 SLC9A9   2.31e-71     -1.63  0.792 0.895  8.93e-67
 3     3 SKIL     5.27e-69      1.43  0.877 0.554  2.03e-64
 4     4 CD163L1  7.02e-69     -3.05  0.396 0.736  2.71e-64
 5     5 FGD5     1.76e-61      1.96  0.646 0.21   6.81e-57
 6     6 IGF1     2.23e-61     -4.29  0.073 0.429  8.61e-57
 7     7 AOAH     7.53e-59     -1.66  0.73  0.869  2.91e-54
 8     8 ATP8B4   8.56e-59     -1.39  0.68  0.873  3.31e-54
 9     9 F13A1    1.49e-58     -5.70  0.037 0.367  5.74e-54
10    10 ARHGAP26 1.85e-54     -0.894 0.96  0.989  7.12e-50
# ℹ 5,536 more rows
…
